E:\devops\AutomationTesting_Framework\src\test\java\page\MakePayment.java
E:\devops\AutomationTesting_Framework\src\test\java\setup\BaseUtils.java
E:\devops\AutomationTesting_Framework\src\test\java\setup\TestSetup.java
E:\devops\AutomationTesting_Framework\src\test\java\test\PaymentTestCase.java
